STA4003_HW2
…
souvenirs_log <- souvenirs %>%
  mutate(log_sales = log(Sales))

d_festival <- rep(0, nrow(souvenirs_log))
d_festival[seq_along(d_festival)%%12 == 3] <- 1
d_festival[3] <- 0

souvenirs_log$Dummy <- d_festival

souvenirs_fit <- souvenirs_log %>%
  model(TSLM(log(Sales) ~ trend() + season() + Dummy))

augment(souvenirs_fit)

## # A tsibble: 84 x 6 [1M]
## # Key:       .model [1]
##    .model                                   Month Sales .fitted .resid    .innov
##    <chr>                                    <mth> <dbl>   <dbl>  <dbl>     <dbl>
##  1 TSLM(log(Sales) ~ trend() + season(  1987 1 1665.   2083. -418.  -2.24e- 1
##  2 TSLM(log(Sales) ~ trend() + season(  1987 2 2398.   2738. -341.  -1.33e- 1
##  3 TSLM(log(Sales) ~ trend() + season(  1987 3 2841.   2841.    0    3.12e-17
##  4 TSLM(log(Sales) ~ trend() + season(  1987 4 3547.   3268.  280.   8.21e- 2
##  5 TSLM(log(Sales) ~ trend() + season(  1987 5 3753.   3426.  327.   9.10e- 2
##  6 TSLM(log(Sales) ~ trend() + season(  1987 6 3715.   3643.   71.6  1.94e- 2
##  7 TSLM(log(Sales) ~ trend() + season(  1987 7 4350.   4378.  -28.0 -6.42e- 3
##  8 TSLM(log(Sales) ~ trend() + season(  1987 8 3566.   4376. -809.  -2.04e- 1
##  9 TSLM(log(Sales) ~ trend() + season(  1987 9 5022.   4852.  170.   3.44e- 2
## 10 TSLM(log(Sales) ~ trend() + season( 1987 10 6423.   5363. 1061.   1.80e- 1
## #  with 74 more rows
…
